<svg xmlns="http://www.w3.org/2000/svg" width="160.41" height="132.007" viewBox="0 0 160.41 132.007">
  <g id="Group_3591" data-name="Group 3591" transform="translate(-29.908 -54.728)">
    <g id="Group_3589" data-name="Group 3589" transform="translate(55.567 54.728)">
      <rect id="Rectangle_1066" data-name="Rectangle 1066" width="109.093" height="7.368" rx="3.684" transform="translate(0 67.304)" fill="#003057"/>
      <g id="Group_3588" data-name="Group 3588" transform="translate(12.243)">
        <g id="Group_3584" data-name="Group 3584" transform="translate(21.79)">
          <rect id="Rectangle_1067" data-name="Rectangle 1067" width="18.605" height="67.149" rx="9.302" transform="translate(0 22.421)" fill="#003057"/>
          <rect id="Rectangle_1068" data-name="Rectangle 1068" width="18.605" height="20.174" rx="9.302" fill="#003057"/>
        </g>
        <g id="Group_3585" data-name="Group 3585" transform="translate(43.58 13.482)">
          <rect id="Rectangle_1069" data-name="Rectangle 1069" width="18.605" height="53.667" rx="9.302" transform="translate(0 22.421)" fill="#6796b2"/>
          <rect id="Rectangle_1070" data-name="Rectangle 1070" width="18.605" height="20.174" rx="9.302" fill="#6796b2"/>
        </g>
        <g id="Group_3586" data-name="Group 3586" transform="translate(0 31.82)">
          <rect id="Rectangle_1071" data-name="Rectangle 1071" width="18.605" height="35.33" rx="9.302" transform="translate(0 22.421)" fill="#005b7e"/>
          <rect id="Rectangle_1072" data-name="Rectangle 1072" width="18.605" height="20.174" rx="9.302" fill="#005b7e"/>
        </g>
        <g id="Group_3587" data-name="Group 3587" transform="translate(66.002 26.117)">
          <rect id="Rectangle_1073" data-name="Rectangle 1073" width="18.605" height="41.032" rx="9.302" transform="translate(0 22.421)" fill="#00415a"/>
          <rect id="Rectangle_1074" data-name="Rectangle 1074" width="18.605" height="20.174" rx="9.302" fill="#00415a"/>
        </g>
      </g>
    </g>
    <g id="Group_3590" data-name="Group 3590" transform="translate(29.908 152.171)">
      <path id="Path_2736" data-name="Path 2736" d="M38.552,240.962a7.455,7.455,0,0,1-7.574-7.6v-.041a7.506,7.506,0,0,1,7.7-7.638,7.622,7.622,0,0,1,5.823,2.278l-2.068,2.385a5.448,5.448,0,0,0-3.777-1.667,4.376,4.376,0,0,0-4.282,4.6v.042a4.386,4.386,0,0,0,4.282,4.641,5.33,5.33,0,0,0,3.882-1.73l2.068,2.089A7.549,7.549,0,0,1,38.552,240.962Z" transform="translate(-30.366 -225.308)" fill="#003057"/>
      <path id="Path_2737" data-name="Path 2737" d="M63.5,243.581a5.878,5.878,0,0,1-6.1-5.843V237.7a6.124,6.124,0,0,1,12.237-.042v.042A5.935,5.935,0,0,1,63.5,243.581Zm2.974-5.886a3,3,0,0,0-2.974-3.123,2.9,2.9,0,0,0-2.933,3.081v.042a3,3,0,0,0,2.975,3.122,2.9,2.9,0,0,0,2.931-3.08Z" transform="translate(-41.671 -227.927)" fill="#003057"/>
      <path id="Path_2738" data-name="Path 2738" d="M89.991,243.328V237.02c0-1.52-.718-2.3-1.941-2.3s-2,.78-2,2.3v6.308H82.839V232.02h3.206v1.6a4,4,0,0,1,3.313-1.814c2.426,0,3.84,1.6,3.84,4.2v7.321Z" transform="translate(-52.552 -227.927)" fill="#003057"/>
      <path id="Path_2739" data-name="Path 2739" d="M112.954,243.328V237.02c0-1.52-.718-2.3-1.941-2.3s-2,.78-2,2.3v6.308H105.8V232.02h3.206v1.6a4,4,0,0,1,3.313-1.814c2.426,0,3.84,1.6,3.84,4.2v7.321Z" transform="translate(-62.376 -227.927)" fill="#003057"/>
      <path id="Path_2740" data-name="Path 2740" d="M138.861,238.792h-7.87a2.623,2.623,0,0,0,2.764,2.216,3.707,3.707,0,0,0,2.743-1.16l1.836,1.624a5.974,5.974,0,0,1-10.528-3.734V237.7a5.63,5.63,0,0,1,5.591-5.886c3.777,0,5.507,2.933,5.507,6.139v.042C138.9,238.307,138.882,238.5,138.861,238.792Zm-5.465-4.41a2.52,2.52,0,0,0-2.446,2.406h4.83A2.425,2.425,0,0,0,133.4,234.382Z" transform="translate(-71.789 -227.927)" fill="#003057"/>
      <path id="Path_2741" data-name="Path 2741" d="M156.284,243.581a5.774,5.774,0,0,1-5.886-5.843V237.7a5.806,5.806,0,0,1,5.929-5.886,5.563,5.563,0,0,1,4.515,1.9l-1.963,2.11a3.3,3.3,0,0,0-2.573-1.245,2.89,2.89,0,0,0-2.743,3.081v.042a2.9,2.9,0,0,0,2.868,3.122,3.58,3.58,0,0,0,2.595-1.2l1.878,1.9A5.7,5.7,0,0,1,156.284,243.581Z" transform="translate(-81.454 -227.927)" fill="#003057"/>
      <path id="Path_2742" data-name="Path 2742" d="M175.609,241.514c-1.963,0-3.291-.782-3.291-3.4v-5.359h-1.35v-2.743h1.35v-2.89h3.207v2.89h2.658v2.743h-2.658v4.831c0,.739.317,1.1,1.034,1.1a3.26,3.26,0,0,0,1.582-.4v2.573A4.729,4.729,0,0,1,175.609,241.514Z" transform="translate(-90.254 -225.923)" fill="#003057"/>
      <path id="Path_2743" data-name="Path 2743" d="M192.287,243.581a5.877,5.877,0,0,1-6.1-5.843V237.7a6.124,6.124,0,0,1,12.236-.042v.042A5.935,5.935,0,0,1,192.287,243.581Zm2.975-5.886a3,3,0,0,0-2.975-3.123,2.9,2.9,0,0,0-2.933,3.081v.042a3.005,3.005,0,0,0,2.975,3.122,2.9,2.9,0,0,0,2.933-3.08Z" transform="translate(-96.766 -227.927)" fill="#003057"/>
      <path id="Path_2744" data-name="Path 2744" d="M218.268,235.159c-2.132,0-3.439,1.287-3.439,3.988v4.178h-3.207V232.016h3.207v2.278a3.493,3.493,0,0,1,3.608-2.488v3.354Z" transform="translate(-107.646 -227.923)" fill="#003057"/>
      <path id="Path_2745" data-name="Path 2745" d="M247.917,240.9V234.97h-5.991V240.9h-3.248V226.13h3.248v5.844h5.991V226.13h3.25V240.9Z" transform="translate(-119.22 -225.497)" fill="#003057"/>
      <path id="Path_2746" data-name="Path 2746" d="M273.1,243.485v-1.6a4,4,0,0,1-3.312,1.814c-2.427,0-3.84-1.6-3.84-4.2v-7.321h3.206v6.308c0,1.519.717,2.3,1.942,2.3s2-.78,2-2.3v-6.308h3.207v11.308Z" transform="translate(-130.889 -228.084)" fill="#003057"/>
      <path id="Path_2747" data-name="Path 2747" d="M295.792,240.636a4.345,4.345,0,0,1-3.524-1.687v1.477h-3.206v-15.4h3.206v5.718a4.153,4.153,0,0,1,3.524-1.836c2.637,0,5.147,2.068,5.147,5.844v.042C300.939,238.568,298.471,240.636,295.792,240.636Zm1.941-5.886a2.776,2.776,0,1,0-5.507,0v.042a2.775,2.775,0,1,0,5.507,0Z" transform="translate(-140.775 -225.024)" fill="#003057"/>
      <path id="Path_2748" data-name="Path 2748" d="M34.082,274.108a6.26,6.26,0,0,1-4.174-1.573L31.187,271a4.507,4.507,0,0,0,2.936,1.195c.886,0,1.42-.351,1.42-.928v-.027c0-.548-.338-.83-1.982-1.251-1.98-.505-3.26-1.053-3.26-3.008v-.027c0-1.785,1.434-2.965,3.443-2.965a5.694,5.694,0,0,1,3.653,1.25l-1.123,1.63a4.619,4.619,0,0,0-2.559-.969c-.829,0-1.264.379-1.264.857v.029c0,.645.421.857,2.122,1.292,1.995.521,3.119,1.237,3.119,2.951v.029C37.693,273.012,36.2,274.108,34.082,274.108Z" transform="translate(-29.908 -241.694)" fill="#003057"/>
      <path id="Path_2749" data-name="Path 2749" d="M49.843,275.859a3.915,3.915,0,0,1-4.061-3.893v-.029a4.079,4.079,0,0,1,8.15-.027v.027A3.954,3.954,0,0,1,49.843,275.859Zm1.982-3.921a2,2,0,0,0-1.982-2.079,1.929,1.929,0,0,0-1.953,2.051v.027a2,2,0,0,0,1.982,2.081,1.93,1.93,0,0,0,1.953-2.052Z" transform="translate(-36.699 -243.417)" fill="#003057"/>
      <path id="Path_2750" data-name="Path 2750" d="M67.4,275.794v-1.067a2.663,2.663,0,0,1-2.206,1.208c-1.615,0-2.557-1.067-2.557-2.8v-4.877h2.136v4.2c0,1.012.477,1.531,1.293,1.531s1.334-.52,1.334-1.531v-4.2h2.136v7.532Z" transform="translate(-43.91 -243.521)" fill="#003057"/>
      <path id="Path_2751" data-name="Path 2751" d="M80.18,274.483c-1.306,0-2.192-.52-2.192-2.263v-3.569h-.9v-1.828h.9V264.9h2.136v1.924h1.77v1.828h-1.77v3.217c0,.492.211.731.689.731a2.176,2.176,0,0,0,1.054-.267v1.714A3.155,3.155,0,0,1,80.18,274.483Z" transform="translate(-50.092 -242.083)" fill="#003057"/>
      <path id="Path_2752" data-name="Path 2752" d="M93.006,273.757v-4.2c0-1.011-.477-1.532-1.291-1.532s-1.336.521-1.336,1.532v4.2H88.242V263.5h2.137v3.794a2.663,2.663,0,0,1,2.206-1.208c1.616,0,2.558,1.068,2.558,2.8v4.875Z" transform="translate(-54.863 -241.484)" fill="#003057"/>
      <path id="Path_2753" data-name="Path 2753" d="M121.556,274.122h-1.884l-2.22-6.436-2.221,6.436h-1.882l-3.359-9.908h2.319l2.038,6.661,2.206-6.689h1.855l2.206,6.689,2.038-6.661h2.262Z" transform="translate(-64.167 -241.778)" fill="#003057"/>
      <path id="Path_2754" data-name="Path 2754" d="M143.621,272.669H138.38a1.747,1.747,0,0,0,1.841,1.475,2.47,2.47,0,0,0,1.828-.772l1.222,1.081a3.978,3.978,0,0,1-7.012-2.487v-.029a3.749,3.749,0,0,1,3.723-3.92c2.517,0,3.668,1.953,3.668,4.09v.027C143.65,272.346,143.635,272.473,143.621,272.669Zm-3.64-2.937a1.679,1.679,0,0,0-1.629,1.6h3.217A1.615,1.615,0,0,0,139.981,269.732Z" transform="translate(-75.405 -243.417)" fill="#003057"/>
      <path id="Path_2755" data-name="Path 2755" d="M154.159,275.851a5.276,5.276,0,0,1-3.233-1.138l.914-1.405a4.255,4.255,0,0,0,2.374.9c.619,0,.9-.224.9-.562v-.029c0-.463-.731-.618-1.559-.871-1.054-.309-2.249-.8-2.249-2.262v-.029a2.462,2.462,0,0,1,2.755-2.389,5.212,5.212,0,0,1,2.81.872l-.815,1.475a4.46,4.46,0,0,0-2.038-.7c-.52,0-.787.225-.787.521v.027c0,.422.718.618,1.532.9,1.054.351,2.277.857,2.277,2.234v.027C157.04,275.093,155.789,275.851,154.159,275.851Z" transform="translate(-81.68 -243.438)" fill="#003057"/>
      <path id="Path_2756" data-name="Path 2756" d="M166.183,274.483c-1.307,0-2.193-.52-2.193-2.263v-3.569h-.9v-1.828h.9V264.9h2.137v1.924h1.77v1.828h-1.77v3.217c0,.492.211.731.689.731a2.176,2.176,0,0,0,1.054-.267v1.714A3.155,3.155,0,0,1,166.183,274.483Z" transform="translate(-86.884 -242.083)" fill="#003057"/>
      <path id="Path_2757" data-name="Path 2757" d="M180.6,272.669h-5.242a1.748,1.748,0,0,0,1.841,1.475,2.47,2.47,0,0,0,1.828-.772l1.222,1.081a3.978,3.978,0,0,1-7.012-2.487v-.029a3.749,3.749,0,0,1,3.723-3.92c2.517,0,3.669,1.953,3.669,4.09v.027C180.631,272.346,180.616,272.473,180.6,272.669Zm-3.64-2.937a1.679,1.679,0,0,0-1.629,1.6h3.217A1.615,1.615,0,0,0,176.962,269.732Z" transform="translate(-91.226 -243.417)" fill="#003057"/>
      <path id="Path_2758" data-name="Path 2758" d="M193.368,270.249c-1.42,0-2.29.858-2.29,2.657v2.781h-2.137v-7.532h2.137v1.519a2.327,2.327,0,0,1,2.4-1.658v2.234Z" transform="translate(-97.943 -243.415)" fill="#003057"/>
      <path id="Path_2759" data-name="Path 2759" d="M203.976,275.69v-4.2c0-1.011-.477-1.532-1.292-1.532s-1.336.521-1.336,1.532v4.2h-2.136v-7.532h2.136v1.069a2.663,2.663,0,0,1,2.206-1.208c1.616,0,2.557,1.068,2.557,2.8v4.875Z" transform="translate(-102.337 -243.417)" fill="#003057"/>
      <path id="Path_2760" data-name="Path 2760" d="M225.281,274.108a6.26,6.26,0,0,1-4.174-1.573L222.386,271a4.507,4.507,0,0,0,2.936,1.195c.886,0,1.42-.351,1.42-.928v-.027c0-.548-.338-.83-1.982-1.251-1.98-.505-3.26-1.053-3.26-3.008v-.027c0-1.785,1.434-2.965,3.443-2.965a5.694,5.694,0,0,1,3.653,1.25l-1.123,1.63a4.619,4.619,0,0,0-2.559-.969c-.829,0-1.265.379-1.265.857v.029c0,.645.421.857,2.123,1.292,1.995.521,3.119,1.237,3.119,2.951v.029C228.892,273.012,227.4,274.108,225.281,274.108Z" transform="translate(-111.704 -241.694)" fill="#003057"/>
      <path id="Path_2761" data-name="Path 2761" d="M241.02,275.978c-.577,1.532-1.195,2.108-2.474,2.108a3.543,3.543,0,0,1-1.9-.52l.718-1.546a1.941,1.941,0,0,0,.913.3.714.714,0,0,0,.744-.492l-2.951-7.561h2.262l1.714,5.13,1.644-5.13h2.221Z" transform="translate(-118.106 -243.521)" fill="#003057"/>
      <path id="Path_2762" data-name="Path 2762" d="M256.565,273.757v-1.081a2.766,2.766,0,0,1-2.347,1.222c-1.756,0-3.429-1.377-3.429-3.893v-.027c0-2.516,1.645-3.893,3.429-3.893a2.892,2.892,0,0,1,2.347,1.124V263.5H258.7v10.258Zm.029-3.779a1.849,1.849,0,1,0-3.668,0V270a1.849,1.849,0,1,0,3.668,0Z" transform="translate(-124.402 -241.484)" fill="#003057"/>
      <path id="Path_2763" data-name="Path 2763" d="M272.731,275.69v-4.2c0-1.011-.477-1.532-1.292-1.532s-1.336.521-1.336,1.532v4.2h-2.136v-7.532H270.1v1.069a2.663,2.663,0,0,1,2.206-1.208c1.616,0,2.557,1.068,2.557,2.8v4.875Z" transform="translate(-131.75 -243.417)" fill="#003057"/>
      <path id="Path_2764" data-name="Path 2764" d="M290,272.669h-5.241a1.747,1.747,0,0,0,1.841,1.475,2.47,2.47,0,0,0,1.828-.772l1.222,1.081a3.978,3.978,0,0,1-7.012-2.487v-.029a3.749,3.749,0,0,1,3.723-3.92c2.517,0,3.668,1.953,3.668,4.09v.027C290.029,272.346,290.014,272.473,290,272.669Zm-3.64-2.937a1.678,1.678,0,0,0-1.629,1.6h3.217A1.615,1.615,0,0,0,286.36,269.732Z" transform="translate(-138.026 -243.417)" fill="#003057"/>
      <path id="Path_2765" data-name="Path 2765" d="M301.492,275.978c-.577,1.532-1.195,2.108-2.474,2.108a3.543,3.543,0,0,1-1.9-.52l.718-1.546a1.941,1.941,0,0,0,.913.3.715.715,0,0,0,.745-.492l-2.951-7.561h2.262l1.714,5.13,1.645-5.13h2.221Z" transform="translate(-143.976 -243.521)" fill="#003057"/>
    </g>
  </g>
</svg>
